{
    "type": "application",
    "source-directories": [
        "src"
    ],
    "elm-version": "0.19.1",
    "dependencies": {
        "direct": {
            "edkv/elm-generic-dict": "1.0.0",
            "elm/browser": "1.0.2",
            "elm/core": "1.0.5",
            "elm/html": "1.0.0",
            "elm/parser": "1.1.0",
            "elm-community/maybe-extra": "5.2.0",
            "erlandsona/assoc-set": "1.1.0",
            "mdgriffith/elm-ui": "1.1.7",
            "rtfeldman/elm-css": "16.0.1"
        },
        "indirect": {
            "Skinney/murmur3": "2.0.8",
            "elm/json": "1.1.3",
            "elm/time": "1.0.0",
            "elm/url": "1.0.0",
            "elm/virtual-dom": "1.0.2",
            "pzp1997/assoc-list": "1.0.0",
            "rtfeldman/elm-hex": "1.0.0"
        }
    },
    "test-dependencies": {
        "direct": {},
        "indirect": {}
    }
}
